module gitlab.com/shibme/socks5-docker

go 1.16

require (
	github.com/armon/go-socks5 v0.0.0-20160902184237-e75332964ef5 // indirect
	golang.org/x/net v0.0.0-20210614182718-04defd469f4e // indirect
)
